<?xml version="1.0" encoding="UTF-8"?>
<svg width="1360px" height="964px" viewBox="0 0 1360 964" version="1.1" xmlns="http://www.w3.org/2000/svg" xmlns:xlink="http://www.w3.org/1999/xlink">
    <!-- Generator: sketchtool 49.3 (51167) - http://www.bohemiancoding.com/sketch -->
    <title>ACF58709-EE0E-4D9F-A3E3-39CF92E03780</title>
    <desc>Created with sketchtool.</desc>
    <defs>
        <rect id="path-1" x="0" y="0" width="1360" height="964"></rect>
    </defs>
    <g id="Page-1" stroke="none" stroke-width="1" fill="none" fill-rule="evenodd">
        <g id="EG-2" transform="translate(0.000000, -6536.000000)">
            <g id="Bitmap-Copy" transform="translate(0.000000, 6536.000000)">
                <mask id="mask-2" fill="white">
                    <use xlink:href="#path-1"></use>
                </mask>
                <use id="Mask" fill="#1B1B1B" xlink:href="#path-1"></use>
            </g>
        </g>
    </g>
</svg>