<?xml version="1.0" encoding="UTF-8"?>
<svg width="150px" height="28px" viewBox="0 0 150 28" version="1.1" xmlns="http://www.w3.org/2000/svg" xmlns:xlink="http://www.w3.org/1999/xlink">
    <!-- Generator: sketchtool 49.3 (51167) - http://www.bohemiancoding.com/sketch -->
    <title>81B087F6-EF8B-40E2-995E-FE9AD3CC9F7A</title>
    <desc>Created with sketchtool.</desc>
    <defs>
        <linearGradient x1="100%" y1="50%" x2="0%" y2="50%" id="linearGradient-1">
            <stop stop-color="#FF5057" offset="0%"></stop>
            <stop stop-color="#F87827" offset="100%"></stop>
        </linearGradient>
        <path d="M620.889691,25.5643154 L620.889691,52.4356846 L613.978989,52.4356846 L613.978989,41.1493776 L611.910703,41.1493776 L611.910703,52.4356846 L605,52.4356846 L605,25.5643154 L611.910703,25.5643154 L611.910703,35.1742739 L613.978989,35.1742739 L613.978989,25.5643154 L620.889691,25.5643154 Z M630.574524,25.5643154 L630.574524,52.4356846 L623.663821,52.4356846 L623.663821,25.5643154 L630.574524,25.5643154 Z M649.205515,35.4564315 L642.294813,35.4564315 L642.294813,33.0165975 C642.294813,31.4785539 642.229154,30.5159079 642.097833,30.1286307 C641.966513,29.7413535 641.654631,29.5477178 641.16218,29.5477178 C640.735389,29.5477178 640.445394,29.7136913 640.292186,30.0456432 C640.138979,30.377595 640.062377,31.229592 640.062377,32.6016598 L640.062377,45.4979253 C640.062377,46.7040171 640.138979,47.4979234 640.292186,47.879668 C640.445394,48.2614127 640.751803,48.4522822 641.211425,48.4522822 C641.71482,48.4522822 642.056795,48.2365167 642.23736,47.8049793 C642.417926,47.3734418 642.508207,46.5325097 642.508207,45.2821577 L642.508207,42.0954357 L641.112935,42.0954357 L641.112935,38.0124481 L649.205515,38.0124481 L649.205515,52.4356846 L644.855548,52.4356846 L644.215364,50.5103734 C643.7448,51.3402531 643.151131,51.9626535 642.43434,52.3775934 C641.717549,52.7925332 640.872187,53 639.898227,53 C638.73823,53 637.652117,52.7150789 636.639856,52.1452282 C635.627594,51.5753775 634.858834,50.8699904 634.333552,50.0290456 C633.808271,49.1881009 633.479974,48.3056754 633.348654,47.3817427 C633.217334,46.45781 633.151674,45.0719318 633.151674,43.2240664 L633.151674,35.2406639 C633.151674,32.6735695 633.288464,30.8091344 633.562049,29.6473029 C633.835633,28.4854714 634.620808,27.4204751 635.917597,26.4522822 C637.214386,25.4840892 638.891432,25 640.948785,25 C642.973308,25 644.65309,25.4204661 645.988181,26.2614108 C647.323272,27.1023555 648.193257,28.1009624 648.598162,29.2572614 C649.003066,30.4135604 649.205515,32.0926584 649.205515,34.2946058 L649.205515,35.4564315 Z M667.770847,25.5643154 L667.770847,52.4356846 L660.860144,52.4356846 L660.860144,41.1493776 L658.791858,41.1493776 L658.791858,52.4356846 L651.881156,52.4356846 L651.881156,25.5643154 L658.791858,25.5643154 L658.791858,35.1742739 L660.860144,35.1742739 L660.860144,25.5643154 L667.770847,25.5643154 Z M685.187131,33.6970954 L678.768877,33.6970954 L678.768877,31.7053942 C678.768877,30.775929 678.686803,30.183957 678.522653,29.9294606 C678.358502,29.6749641 678.084922,29.5477178 677.701904,29.5477178 C677.286056,29.5477178 676.971439,29.7192237 676.758043,30.0622407 C676.544648,30.4052576 676.437951,30.9253077 676.437951,31.6224066 C676.437951,32.5186767 676.558327,33.1936354 676.799081,33.6473029 C677.028891,34.1009705 677.680012,34.6486828 678.752462,35.2904564 C681.827549,37.1383218 683.764496,38.6542126 684.563362,39.8381743 C685.362228,41.0221359 685.761655,42.9308305 685.761655,45.5643154 C685.761655,47.4785711 685.540055,48.8893454 685.096848,49.7966805 C684.653642,50.7040156 683.797336,51.4647272 682.527905,52.0788382 C681.258475,52.6929491 679.781142,53 678.095863,53 C676.246434,53 674.667877,52.6459233 673.360144,51.9377593 C672.052412,51.2295954 671.196106,50.3278063 670.791202,49.2323651 C670.386297,48.136924 670.183848,46.5823061 670.183848,44.5684647 L670.183848,42.8091286 L676.602101,42.8091286 L676.602101,46.0788382 C676.602101,47.0857588 676.692383,47.7330553 676.872948,48.0207469 C677.053514,48.3084385 677.373602,48.4522822 677.833224,48.4522822 C678.292845,48.4522822 678.634821,48.2697114 678.85916,47.9045643 C679.083499,47.5394173 679.195666,46.9972373 679.195666,46.2780083 C679.195666,44.6957044 678.982274,43.6611366 678.555483,43.1742739 C678.117748,42.6874111 677.039842,41.8741412 675.321733,40.7344398 C673.603625,39.5836734 672.465531,38.7482737 671.90742,38.2282158 C671.349308,37.7081578 670.886957,36.9889396 670.520355,36.0705394 C670.153752,35.1521393 669.970453,33.9792602 669.970453,32.5518672 C669.970453,30.4937656 670.230354,28.9889398 670.750164,28.0373444 C671.269974,27.085749 672.109865,26.3416348 673.269862,25.8049793 C674.429859,25.2683237 675.830589,25 677.472095,25 C679.266807,25 680.79612,25.2932198 682.060079,25.879668 C683.324038,26.4661163 684.161193,27.2046982 684.571569,28.0954357 C684.981946,28.9861732 685.187131,30.4992978 685.187131,32.6348548 L685.187131,33.6970954 Z M704.064347,37.2821577 L697.153644,37.2821577 L697.153644,32.6016598 C697.153644,31.2406571 697.079777,30.3914263 696.932042,30.0539419 C696.784307,29.7164575 696.458746,29.5477178 695.955351,29.5477178 C695.386296,29.5477178 695.02517,29.7524184 694.871963,30.1618257 C694.718756,30.571233 694.642154,31.4564247 694.642154,32.8174274 L694.642154,45.2987552 C694.642154,46.6044325 694.718756,47.4564295 694.871963,47.8547718 C695.02517,48.253114 695.369881,48.4522822 695.906106,48.4522822 C696.420445,48.4522822 696.756948,48.253114 696.915627,47.8547718 C697.074306,47.4564295 697.153644,46.5214458 697.153644,45.0497925 L697.153644,41.6804979 L704.064347,41.6804979 L704.064347,42.7261411 C704.064347,45.5034717 703.870105,47.4730232 703.481615,48.6348548 C703.093126,49.7966863 702.234084,50.8146568 700.904465,51.6887967 C699.574846,52.5629366 697.936101,53 695.988181,53 C693.963658,53 692.294819,52.629326 690.981615,51.8879668 C689.668411,51.1466076 688.798426,50.1203385 688.371635,48.8091286 C687.944844,47.4979188 687.731451,45.525601 687.731451,42.8921162 L687.731451,35.0414938 C687.731451,33.1051079 687.79711,31.6528402 687.928431,30.6846473 C688.059751,29.7164544 688.450971,28.7842368 689.102101,27.8879668 C689.753232,26.9916968 690.656046,26.2863096 691.810571,25.7717842 C692.965097,25.2572588 694.29196,25 695.791202,25 C697.826668,25 699.50645,25.3983363 700.830598,26.1950207 C702.154745,26.9917052 703.02473,27.9847797 703.440578,29.1742739 C703.856426,30.363768 704.064347,32.214372 704.064347,34.7261411 L704.064347,37.2821577 Z M722.334209,41.2987552 C722.334209,43.9986304 722.271285,45.9100912 722.145437,47.033195 C722.019588,48.1562988 721.625633,49.182568 720.963559,50.1120332 C720.301485,51.0414984 719.406878,51.7551842 718.279711,52.253112 C717.152544,52.7510398 715.83936,53 714.340118,53 C712.91748,53 711.639861,52.764871 710.507223,52.2946058 C709.374584,51.8243407 708.463562,51.1189535 707.77413,50.1784232 C707.084698,49.2378929 706.674328,48.21439 706.543007,47.1078838 C706.411687,46.0013776 706.346028,44.0650207 706.346028,41.2987552 L706.346028,36.7012448 C706.346028,34.0013696 706.408951,32.0899088 706.5348,30.966805 C706.660648,29.8437012 707.054604,28.817432 707.716678,27.8879668 C708.378751,26.9585016 709.273358,26.2448158 710.400525,25.746888 C711.527692,25.2489602 712.840877,25 714.340118,25 C715.762756,25 717.040375,25.235129 718.173014,25.7053942 C719.305652,26.1756593 720.216674,26.8810465 720.906106,27.8215768 C721.595539,28.7621071 722.005909,29.78561 722.137229,30.8921162 C722.26855,31.9986224 722.334209,33.9349793 722.334209,36.7012448 L722.334209,41.2987552 Z M715.423506,32.4688797 C715.423506,31.2185276 715.355111,30.4190889 715.218319,30.0705394 C715.081527,29.72199 714.799739,29.5477178 714.372948,29.5477178 C714.011817,29.5477178 713.735501,29.6887953 713.543992,29.9709544 C713.352483,30.2531134 713.25673,31.0857469 713.25673,32.4688797 L713.25673,45.0165975 C713.25673,46.5767713 713.319654,47.5394173 713.445502,47.9045643 C713.571351,48.2697114 713.864082,48.4522822 714.323703,48.4522822 C714.794268,48.4522822 715.095206,48.2420491 715.226527,47.8215768 C715.357847,47.4011044 715.423506,46.3997313 715.423506,44.8174274 L715.423506,32.4688797 Z M724.911359,25.5643154 L729.80302,25.5643154 C733.064144,25.5643154 735.271936,25.6915617 736.426461,25.9460581 C737.580986,26.2005545 738.522102,26.8506172 739.249836,27.8962656 C739.97757,28.9419139 740.341431,30.6099471 740.341431,32.9004149 C740.341431,34.9917117 740.084266,36.3969535 739.569928,37.1161826 C739.055589,37.8354116 738.043343,38.2669426 736.533158,38.4107884 C737.901079,38.7538053 738.820308,39.2129985 739.290873,39.7883817 C739.761438,40.363765 740.054169,40.8921138 740.169074,41.373444 C740.28398,41.8547742 740.341431,43.1797955 740.341431,45.3485477 L740.341431,52.4356846 L733.923178,52.4356846 L733.923178,43.5062241 C733.923178,42.067766 733.81101,41.1770418 733.586671,40.8340249 C733.362332,40.491008 732.774135,40.3195021 731.822062,40.3195021 L731.822062,52.4356846 L724.911359,52.4356846 L724.911359,25.5643154 Z M731.822062,30.1618257 L731.822062,36.1369295 C732.599041,36.1369295 733.143465,36.0290467 733.455351,35.813278 C733.767237,35.5975093 733.923178,34.8976546 733.923178,33.7136929 L733.923178,32.2365145 C733.923178,31.3845047 733.772709,30.8257275 733.471766,30.560166 C733.170824,30.2946045 732.620928,30.1618257 731.822062,30.1618257 Z M743.017072,25.5643154 L754.540381,25.5643154 L754.540381,30.9419087 L749.927774,30.9419087 L749.927774,36.0373444 L754.244911,36.0373444 L754.244911,41.1493776 L749.927774,41.1493776 L749.927774,47.0580913 L755,47.0580913 L755,52.4356846 L743.017072,52.4356846 L743.017072,25.5643154 Z" id="path-2"></path>
    </defs>
    <g id="Page-1" stroke="none" stroke-width="1" fill="none" fill-rule="evenodd">
        <g id="EG-2" transform="translate(-605.000000, -25.000000)">
            <g id="highscore">
                <use fill="url(#linearGradient-1)" xlink:href="#path-2"></use>
                <use fill="#FFFFFF" xlink:href="#path-2"></use>
            </g>
        </g>
    </g>
</svg>